

 NAS Parallel Benchmarks 3.4 -- SP Benchmark

 No input file inputsp.data. Using compiled defaults
 Size:  408x 408x 408  (class D)
 Iterations:  500    dt:   0.0003000
 WARNING: Number of active processes:     1
 Total number of processes:     2

 Error encountered in allocating space
